module github.com/PirateNetwork/lightwalletd

go 1.12

require (
	github.com/btcsuite/btcd v0.20.1-beta
	github.com/golang/protobuf v1.5.2
	github.com/gopherjs/gopherjs v0.0.0-20191106031601-ce3c9ade29de // indirect
	github.com/grpc-ecosystem/go-grpc-middleware v1.0.0
	github.com/grpc-ecosystem/go-grpc-prometheus v1.2.0
	github.com/konsorten/go-windows-terminal-sequences v1.0.2 // indirect
	github.com/kr/text v0.2.0 // indirect
	github.com/pkg/errors v0.9.1
	github.com/prometheus/client_golang v1.5.1
	github.com/sirupsen/logrus v1.4.2
	github.com/smartystreets/assertions v1.0.1 // indirect
	github.com/spf13/afero v1.5.1 // indirect
	github.com/spf13/cobra v1.0.0
	github.com/spf13/viper v1.6.2
	github.com/stretchr/testify v1.6.1 // indirect
	golang.org/x/crypto v0.0.0-20201221181555-eec23a3978ad // indirect
	golang.org/x/net v0.0.0-20210405180319-a5a99cb37ef4 // indirect
	golang.org/x/sys v0.0.0-20210403161142-5e06dd20ab57 // indirect
	golang.org/x/text v0.3.6 // indirect
	google.golang.org/genproto v0.0.0-20210406143921-e86de6bf7a46 // indirect
	google.golang.org/grpc v1.37.0
	google.golang.org/protobuf v1.26.0
	gopkg.in/check.v1 v1.0.0-20201130134442-10cb98267c6c // indirect
	gopkg.in/ini.v1 v1.51.0
	gopkg.in/yaml.v3 v3.0.0-20210105161348-2e78108cf5f8 // indirect
)
